Factories: 
0: F 
1: B R R U 
2: L L L L 
3: L Y Y Y 
4: B L U Y 
5: B U U U 

Score for Player Ronald: 29
Mosaic for Ronald:
1:         . || . . R U L
2:       . . || L B . R U
3:     . . Y || . L B . R
4:   . . . . || . U . B Y
5: . Y Y Y Y || . R . . .
broken: 

Score for Player Michael: 50
Mosaic for Michael:
1:         . || B Y R . .
2:       . . || L B Y . U
3:     . . . || . L B Y R
4:   . . . . || . U L . Y
5: . . . . . || . . U . B
broken: 

=== GAME OVER ===

Final Scores: 
Player Ronald: 29
Player Michael: 50
Player Michael wins ! 

